\relax 
\providecommand\hyper@newdestlabel[2]{}
\providecommand\babel@aux[2]{}
\@nameuse{bbl@beforestart}
\catcode `:\active 
\catcode `;\active 
\catcode `!\active 
\catcode `?\active 
\providecommand\HyperFirstAtBeginDocument{\AtBeginDocument}
\HyperFirstAtBeginDocument{\ifx\hyper@anchor\@undefined
\global\let\oldcontentsline\contentsline
\gdef\contentsline#1#2#3#4{\oldcontentsline{#1}{#2}{#3}}
\global\let\oldnewlabel\newlabel
\gdef\newlabel#1#2{\newlabelxx{#1}#2}
\gdef\newlabelxx#1#2#3#4#5#6{\oldnewlabel{#1}{{#2}{#3}}}
\AtEndDocument{\ifx\hyper@anchor\@undefined
\let\contentsline\oldcontentsline
\let\newlabel\oldnewlabel
\fi}
\fi}
\global\let\hyper@last\relax 
\gdef\HyperFirstAtBeginDocument#1{#1}
\providecommand\HyField@AuxAddToFields[1]{}
\providecommand\HyField@AuxAddToCoFields[2]{}
\babel@aux{french}{}
\@writefile{toc}{\contentsline {section}{\numberline {1}Exercice « Mise en place »}{1}{section.1}\protected@file@percent }
\@writefile{toc}{\contentsline {subsection}{\numberline {1.1}Question 1}{1}{subsection.1.1}\protected@file@percent }
\@writefile{toc}{\contentsline {subsection}{\numberline {1.2}Question 2}{1}{subsection.1.2}\protected@file@percent }
\@writefile{toc}{\contentsline {subsection}{\numberline {1.3}Question 3}{1}{subsection.1.3}\protected@file@percent }
\@writefile{toc}{\contentsline {subsection}{\numberline {1.4}Question 4}{1}{subsection.1.4}\protected@file@percent }
\@writefile{toc}{\contentsline {subsection}{\numberline {1.5}Question 5}{1}{subsection.1.5}\protected@file@percent }
\newlabel{question1}{{1}{1}{question1}{lstlisting.1}{}}
\@writefile{lol}{\contentsline {lstlisting}{\numberline {1}question1}{1}{lstlisting.1}\protected@file@percent }
\newlabel{question2}{{2}{2}{question2}{lstlisting.2}{}}
\@writefile{lol}{\contentsline {lstlisting}{\numberline {2}question2}{2}{lstlisting.2}\protected@file@percent }
\@writefile{lol}{\contentsline {lstlisting}{.gitignore}{2}{lstlisting.-1}\protected@file@percent }
\newlabel{question4}{{3}{2}{question4}{lstlisting.3}{}}
\@writefile{lol}{\contentsline {lstlisting}{\numberline {3}question4}{2}{lstlisting.3}\protected@file@percent }
\@writefile{lof}{\contentsline {figure}{\numberline {1}{\ignorespaces capture d'écran de la console}}{2}{figure.1}\protected@file@percent }
\newlabel{figure1}{{1}{2}{capture d'écran de la console}{figure.1}{}}
\newlabel{question5}{{4}{2}{question5}{lstlisting.4}{}}
\@writefile{lol}{\contentsline {lstlisting}{\numberline {4}question5}{2}{lstlisting.4}\protected@file@percent }
\gdef \@abspage@last{2}
